<svg width="44" height="40" viewBox="0 0 44 40" fill="none" xmlns="http://www.w3.org/2000/svg">
<path d="M38.3598 17.4415C38.0886 17.9457 37.585 18.2948 37.0038 18.3336L23.1727 18.993C22.5916 19.0318 22.0492 18.7215 21.7392 18.256L14.2619 6.58143C13.952 6.07721 13.9132 5.49542 14.1844 4.95241C14.4556 4.44819 14.9593 4.09912 15.5404 4.06033L29.3715 3.40097C29.9527 3.36219 30.4951 3.67247 30.805 4.13791L38.2823 15.8125C38.5923 16.3167 38.631 16.8985 38.3598 17.4415Z" fill="#D881AD"/>
<path d="M32.2385 34.9341C31.9673 35.4383 31.4636 35.7874 30.8825 35.8262L17.0514 36.4855C16.4703 36.5243 15.9279 36.2528 15.6179 35.7486C15.308 35.2444 15.2692 34.6626 15.5404 34.1196L21.8942 21.8244C22.1654 21.3202 22.6691 20.9711 23.2502 20.9323L37.0813 20.2729C37.6625 20.2342 38.2049 20.5057 38.5148 21.0099C38.8247 21.5141 38.8635 22.0959 38.5923 22.6389L32.2385 34.9341Z" fill="#D881AD"/>
<path d="M23.0177 8.36568C23.3277 9.41291 22.6303 10.0335 21.4293 9.80077C20.2283 9.56805 18.9885 8.52083 18.6398 7.51239C18.3299 6.46517 19.0272 5.84459 20.2283 6.07731C21.4293 6.31002 22.6691 7.31846 23.0177 8.36568Z" fill="#8B278B"/>
<path d="M19.221 32.1026C19.7246 31.133 21.1194 30.3184 22.3591 30.2797C23.5989 30.2409 24.18 30.9778 23.7151 31.9475C23.2115 32.9171 21.8167 33.7316 20.577 33.7316C19.2984 33.8092 18.7173 33.0335 19.221 32.1026Z" fill="#8B278B"/>
<path d="M25.3809 28.6507C25.8846 27.6811 27.2793 26.8666 28.5191 26.8666C29.7589 26.8278 30.34 27.5647 29.8751 28.5344C29.3714 29.504 27.9767 30.3185 26.7369 30.3185C25.4972 30.3573 24.916 29.5816 25.3809 28.6507Z" fill="#8B278B"/>
<path d="M35.6866 25.0436C35.183 26.0132 33.7882 26.8277 32.5485 26.8277C31.3087 26.8665 30.7276 26.1296 31.1925 25.1599C31.6961 24.1903 33.0909 23.3758 34.3306 23.3758C35.5704 23.337 36.1903 24.1127 35.6866 25.0436Z" fill="#8B278B"/>
<path d="M9.53529 3.63373L1.32186 19.536C0.85695 20.4281 0.895694 21.4753 1.43809 22.3286L11.085 37.4164C11.6274 38.2697 12.5572 38.7351 13.5645 38.6963L31.4636 37.8818C32.4709 37.843 33.362 37.2612 33.8269 36.3692L42.0403 20.4669C42.5053 19.5748 42.4665 18.5276 41.9241 17.6743L32.2772 2.58651C31.7348 1.73321 30.805 1.26778 29.7977 1.30657L11.8986 2.12107C10.8913 2.15986 10.0002 2.74165 9.53529 3.63373Z" stroke="#8B278B" stroke-width="2" stroke-miterlimit="10"/>
<path d="M13.7582 33.1886C13.487 33.6929 12.9834 34.0419 12.4023 34.0807C11.8211 34.1195 11.2787 33.848 10.9688 33.3438L3.49145 21.6692C3.18151 21.165 3.14276 20.5444 3.41396 20.0402L9.76775 7.74498C10.039 7.24076 10.5426 6.89168 11.1237 6.8529C11.7049 6.81411 12.2473 7.08561 12.5572 7.58983L20.0345 19.2644C20.3445 19.7687 20.3832 20.3892 20.112 20.8935L13.7582 33.1886Z" fill="#D881AD"/>
<path d="M12.7897 22.2898C12.3636 23.1431 11.5112 23.0655 10.9301 22.1346C10.3489 21.2038 10.2327 19.7687 10.6589 18.9154C11.085 18.0621 11.9374 18.1397 12.5185 19.0705C13.0997 20.0014 13.2159 21.4365 12.7897 22.2898Z" fill="#8B278B"/>
<path d="M17.3613 22.6778C16.9351 23.5311 16.0828 23.4535 15.5017 22.5227C14.9205 21.5918 14.8043 20.1567 15.2305 19.3034C15.6566 18.4501 16.509 18.5277 17.0901 19.4586C17.71 20.3894 17.8262 21.8245 17.3613 22.6778Z" fill="#8B278B"/>
<path d="M13.4483 30.2798C13.8745 29.4265 13.7583 27.9914 13.1772 27.0605C12.596 26.1296 11.7437 26.0521 11.3175 26.9054C10.8913 27.7587 11.0076 29.1937 11.5887 30.1246C12.1698 31.0555 13.0222 31.133 13.4483 30.2798Z" fill="#8B278B"/>
<path d="M9.96149 10.9255C9.53532 11.7788 9.65155 13.2139 10.2327 14.1448C10.8138 15.0756 11.6662 15.1532 12.0923 14.2999C12.5185 13.4466 12.4023 12.0115 11.8211 11.0807C11.24 10.1498 10.3877 10.0722 9.96149 10.9255Z" fill="#8B278B"/>
<path d="M6.04846 18.4889C6.47463 17.6356 7.32697 17.7131 7.90811 18.644C8.48924 19.5749 8.60547 21.01 8.1793 21.8632C7.75313 22.7165 6.9008 22.639 6.31966 21.7081C5.69977 20.816 5.58355 19.3422 6.04846 18.4889Z" fill="#8B278B"/>
<path d="M34.6792 14.1837C34.9892 15.2309 34.2918 15.8515 33.0908 15.6188C31.8898 15.386 30.65 14.3388 30.3013 13.3304C29.9914 12.2832 30.6887 11.6626 31.8898 11.8953C33.0908 12.128 34.3306 13.1752 34.6792 14.1837Z" fill="#8B278B"/>
</svg>
