<svg width="61" height="63" viewBox="0 0 61 63" fill="none" xmlns="http://www.w3.org/2000/svg">
<path d="M33.0076 54.0517C33.1803 54.9163 32.8925 55.7809 32.2016 56.2997C31.5682 56.8761 30.647 57.049 29.841 56.7608L10.4384 49.9017C9.63231 49.6135 9.05657 48.9219 8.88384 48.0573L5.14149 27.8259C4.96877 26.9613 5.25664 26.0968 5.94754 25.578C6.58086 25.0016 7.50205 24.8287 8.3081 25.1169L27.7107 31.976C28.5168 32.2641 29.1501 32.9558 29.2653 33.8204L33.0076 54.0517Z" fill="#00ADDC"/>
<path d="M47.4012 13.07C47.5739 13.9346 47.286 14.7992 46.5951 15.318L30.9924 28.6902C30.3591 29.2666 29.4379 29.4396 28.6319 29.1514L9.22921 22.2923C8.42317 22.0041 7.84742 21.3124 7.6747 20.4479C7.50197 19.5833 7.78985 18.7187 8.48074 18.1999L24.0835 4.82763C24.7168 4.25124 25.638 4.07832 26.444 4.36652L45.8467 11.2256C46.7103 11.5714 47.286 12.2054 47.4012 13.07Z" fill="#00ADDC"/>
<path d="M56.2101 39.2381C56.3828 40.1027 56.0374 40.9673 55.4041 41.486L39.8013 54.8583C39.168 55.4347 38.2468 55.6076 37.4408 55.3195C36.6347 55.0313 36.059 54.3396 35.8863 53.475L32.1439 33.2436C31.9712 32.3791 32.3166 31.5145 32.95 30.9381L48.5527 17.5658C49.186 16.9894 50.1072 16.8165 50.9132 17.1047C51.7193 17.3929 52.295 18.0845 52.4678 18.9491L56.2101 39.2381Z" fill="#00ADDC"/>
<path d="M22.3562 42.8121C22.6441 44.3683 21.4926 45.2329 19.7078 44.5989C17.9806 44.0225 16.3109 42.2933 16.023 40.6794C15.7352 39.1232 16.8866 38.3162 18.6715 38.8926C20.3987 39.469 22.0684 41.1982 22.3562 42.8121Z" fill="#0061A1"/>
<path d="M30.4168 14.7418C31.741 15.664 31.5107 17.0474 29.841 17.8543C28.1714 18.6613 25.8108 18.6036 24.4866 17.6814C23.1624 16.7592 23.3927 15.3758 25.0624 14.5689C26.6744 13.7619 29.0926 13.8196 30.4168 14.7418Z" fill="#0061A1"/>
<path d="M29.2653 49.4405C28.9774 47.8842 27.3078 46.0974 25.5805 45.521C23.8533 44.9446 22.6442 45.7516 22.9321 47.3078C23.22 48.8641 24.8896 50.6509 26.6169 51.2273C28.4017 51.8613 29.5532 51.0544 29.2653 49.4405Z" fill="#0061A1"/>
<path d="M8.82625 32.3793C9.11412 33.9355 10.7838 35.7223 12.511 36.2987C14.2383 36.8751 15.4473 36.0682 15.1595 34.5119C14.8716 32.9556 13.2019 31.1688 11.4747 30.5924C9.68987 30.016 8.53838 30.823 8.82625 32.3793Z" fill="#0061A1"/>
<path d="M38.3619 47.7691C38.0741 46.2129 38.9953 43.9649 40.3771 42.8121C41.8164 41.6594 43.1982 41.9476 43.4861 43.5615C43.774 45.1177 42.8528 47.3656 41.471 48.5184C40.0316 49.6712 38.6498 49.3254 38.3619 47.7691Z" fill="#0061A1"/>
<path d="M51.2587 24.4827C51.5465 26.039 50.6254 28.2869 49.2436 29.4397C47.8042 30.5925 46.4224 30.2466 46.1345 28.6904C45.8467 27.1341 46.7679 24.8862 48.1496 23.7334C49.589 22.5806 50.9708 22.8688 51.2587 24.4827Z" fill="#0061A1"/>
<path d="M1.05379 23.2146L5.94763 49.3828C6.23551 50.8238 7.27185 52.0342 8.65364 52.5529L33.7562 61.4294C35.138 61.9481 36.6925 61.6599 37.844 60.6801L58.0527 43.3883C59.2041 42.4084 59.7223 40.9098 59.4344 39.4689L54.5406 13.3007C54.2527 11.8597 53.2164 10.6493 51.8346 10.1305L26.7321 1.25408C25.3503 0.735327 23.7958 1.02352 22.6443 2.00339L2.43558 19.2951C1.34166 20.275 0.823494 21.7736 1.05379 23.2146Z" stroke="white" stroke-width="2" stroke-miterlimit="10"/>
</svg>
