<svg width="120" height="120" viewBox="0 0 120 120" fill="none" xmlns="http://www.w3.org/2000/svg">
<path d="M40.3136 95.2096C40.4547 95.9152 40.2195 96.6209 39.655 97.0442C39.1376 97.5146 38.3849 97.6557 37.7264 97.4205L21.8738 91.8227C21.2152 91.5875 20.7448 91.023 20.6037 90.3174L17.546 73.8063C17.4049 73.1007 17.6401 72.3951 18.2046 71.9717C18.7221 71.5013 19.4747 71.3602 20.1333 71.5954L35.9859 77.1932C36.6444 77.4284 37.1619 77.9929 37.256 78.6985L40.3136 95.2096Z" fill="#00ADDC"/>
<path d="M52.0737 61.7639C52.2148 62.4695 51.9796 63.1751 51.4151 63.5985L38.6672 74.5118C38.1497 74.9822 37.3971 75.1234 36.7385 74.8882L20.8859 69.2904C20.2273 69.0552 19.7569 68.4907 19.6158 67.7851C19.4747 67.0795 19.7099 66.3739 20.2744 65.9505L33.0223 55.0371C33.5398 54.5667 34.2924 54.4256 34.951 54.6608L50.8036 60.2586C51.5092 60.5409 51.9796 61.0583 52.0737 61.7639Z" fill="#00ADDC"/>
<path d="M59.2709 83.1203C59.412 83.8259 59.1297 84.5315 58.6123 84.9549L45.8644 95.8682C45.3469 96.3386 44.5943 96.4798 43.9357 96.2446C43.2771 96.0094 42.8067 95.4449 42.6656 94.7393L39.608 78.2281C39.4669 77.5225 39.7491 76.8169 40.2665 76.3465L53.0145 65.4331C53.5319 64.9627 54.2846 64.8216 54.9431 65.0568C55.6017 65.292 56.0721 65.8565 56.2132 66.5621L59.2709 83.1203Z" fill="#00ADDC"/>
<path d="M31.6111 86.0366C31.8463 87.3067 30.9055 88.0123 29.4472 87.4948C28.036 87.0244 26.6719 85.6132 26.4367 84.2961C26.2015 83.026 27.1423 82.3674 28.6005 82.8378C30.0117 83.3082 31.3759 84.7195 31.6111 86.0366Z" fill="#0061A1"/>
<path d="M38.1968 63.128C39.2787 63.8806 39.0905 65.0096 37.7264 65.6682C36.3622 66.3267 34.4335 66.2797 33.3516 65.5271C32.2697 64.7744 32.4578 63.6454 33.822 62.9869C35.1391 62.3283 37.1148 62.3754 38.1968 63.128Z" fill="#0061A1"/>
<path d="M37.256 91.4463C37.0208 90.1762 35.6566 88.7179 34.2454 88.2475C32.8342 87.7771 31.8463 88.4357 32.0815 89.7058C32.3167 90.9758 33.6809 92.4341 35.0921 92.9045C36.5504 93.4219 37.4912 92.7634 37.256 91.4463Z" fill="#0061A1"/>
<path d="M20.5566 77.5224C20.7918 78.7925 22.156 80.2508 23.5672 80.7212C24.9784 81.1916 25.9663 80.533 25.7311 79.2629C25.4959 77.9928 24.1317 76.5346 22.7205 76.0642C21.2622 75.5938 20.3214 76.2523 20.5566 77.5224Z" fill="#0061A1"/>
<path d="M44.6883 90.0822C44.4531 88.8121 45.2058 86.9775 46.3347 86.0367C47.5107 85.0959 48.6397 85.3311 48.8749 86.6482C49.1101 87.9183 48.3575 89.7529 47.2285 90.6937C46.0525 91.6345 44.9235 91.3523 44.6883 90.0822Z" fill="#0061A1"/>
<path d="M55.2254 71.0779C55.4606 72.348 54.7079 74.1826 53.579 75.1234C52.403 76.0642 51.274 75.782 51.0388 74.5119C50.8036 73.2418 51.5562 71.4072 52.6852 70.4664C53.8612 69.5256 54.9902 69.7608 55.2254 71.0779Z" fill="#0061A1"/>
<path d="M14.2062 70.0431L18.2046 91.3994C18.4398 92.5754 19.2865 93.5633 20.4155 93.9866L40.9251 101.231C42.0541 101.654 43.3242 101.419 44.265 100.619L60.7762 86.5072C61.717 85.7075 62.1403 84.4845 61.9051 83.3085L57.9067 61.9521C57.6715 60.7761 56.8248 59.7883 55.6958 59.3649L35.1862 52.1207C34.0572 51.6973 32.7871 51.9325 31.8463 52.7322L15.3351 66.8443C14.4414 67.644 14.018 68.8671 14.2062 70.0431Z" stroke="#0061A1" stroke-width="2" stroke-miterlimit="10"/>
<path d="M107.534 67.0795C107.205 67.691 106.594 68.1143 105.888 68.1614L89.0945 68.9611C88.3889 69.0081 87.7303 68.6318 87.354 68.0673L78.2752 53.9081C77.8989 53.2966 77.8518 52.591 78.1811 51.9325C78.5104 51.3209 79.1219 50.8976 79.8275 50.8505L96.6209 50.0508C97.3265 50.0038 97.9851 50.3801 98.3614 50.9446L107.44 65.1038C107.817 65.7153 107.864 66.4209 107.534 67.0795Z" fill="#D881AD"/>
<path d="M100.102 88.2947C99.7727 88.9063 99.1611 89.3296 98.4555 89.3767L81.6621 90.1763C80.9565 90.2234 80.2979 89.8941 79.9216 89.2826C79.5453 88.6711 79.4983 87.9655 79.8275 87.3069L87.5422 72.3951C87.8714 71.7836 88.483 71.3602 89.1886 71.3132L105.982 70.5135C106.688 70.4664 107.346 70.7957 107.722 71.4072C108.099 72.0188 108.146 72.7244 107.817 73.3829L100.102 88.2947Z" fill="#D881AD"/>
<path d="M88.9063 56.072C89.2827 57.3421 88.4359 58.0948 86.9777 57.8125C85.5194 57.5303 84.0141 56.2602 83.5908 55.0372C83.2144 53.7671 84.0612 53.0144 85.5194 53.2967C86.9777 53.5789 88.483 54.802 88.9063 56.072Z" fill="#8B278B"/>
<path d="M84.2964 84.8609C84.9079 83.6849 86.6014 82.697 88.1066 82.65C89.6119 82.6029 90.3175 83.4967 89.7531 84.6727C89.1415 85.8487 87.4481 86.8366 85.9428 86.8366C84.3905 86.9306 83.6848 85.9898 84.2964 84.8609Z" fill="#8B278B"/>
<path d="M91.7758 80.6742C92.3873 79.4982 94.0808 78.5103 95.5861 78.5103C97.0914 78.4633 97.797 79.357 97.2325 80.5331C96.6209 81.7091 94.9275 82.6969 93.4222 82.6969C91.9169 82.744 91.2113 81.8031 91.7758 80.6742Z" fill="#8B278B"/>
<path d="M104.289 76.2996C103.677 77.4756 101.984 78.4634 100.478 78.4634C98.973 78.5105 98.2674 77.6167 98.8319 76.4407C99.4434 75.2647 101.137 74.2768 102.642 74.2768C104.147 74.2298 104.9 75.1706 104.289 76.2996Z" fill="#8B278B"/>
<path d="M72.5363 50.3332L62.5637 69.6198C61.9992 70.7017 62.0463 71.9718 62.7048 73.0067L74.4179 91.3054C75.0764 92.3403 76.2054 92.9047 77.4285 92.8577L99.1611 91.8699C100.384 91.8228 101.466 91.1172 102.031 90.0353L112.003 70.7487C112.568 69.6668 112.521 68.3967 111.862 67.3618L100.149 49.0631C99.4904 48.0282 98.3614 47.4637 97.1384 47.5108L75.4057 48.4986C74.1827 48.5457 73.1008 49.2513 72.5363 50.3332Z" stroke="#8B278B" stroke-width="2" stroke-miterlimit="10"/>
<path d="M77.6637 86.178C77.3344 86.7895 76.7229 87.2129 76.0173 87.2599C75.3117 87.307 74.6531 86.9777 74.2768 86.3662L65.198 72.207C64.8217 71.5955 64.7746 70.8428 65.1039 70.2313L72.8185 55.3195C73.1478 54.708 73.7593 54.2846 74.4649 54.2376C75.1705 54.1905 75.8291 54.5198 76.2054 55.1314L85.2842 69.2905C85.6605 69.902 85.7076 70.6547 85.3783 71.2662L77.6637 86.178Z" fill="#D881AD"/>
<path d="M76.4877 72.9598C75.9702 73.9947 74.9353 73.9006 74.2297 72.7716C73.5241 71.6427 73.383 69.9022 73.9005 68.8673C74.4179 67.8324 75.4528 67.9265 76.1584 69.0555C76.864 70.1844 77.0051 71.9249 76.4877 72.9598Z" fill="#8B278B"/>
<path d="M82.0384 73.43C81.521 74.4649 80.4861 74.3708 79.7805 73.2419C79.0749 72.1129 78.9338 70.3724 79.4512 69.3375C79.9686 68.3026 81.0035 68.3967 81.7091 69.5257C82.4618 70.6546 82.6029 72.3951 82.0384 73.43Z" fill="#8B278B"/>
<path d="M77.2874 82.65C77.8048 81.6151 77.6637 79.8746 76.9581 78.7456C76.2525 77.6167 75.2176 77.5226 74.7001 78.5575C74.1827 79.5924 74.3238 81.3329 75.0294 82.4618C75.735 83.5908 76.7699 83.6849 77.2874 82.65Z" fill="#8B278B"/>
<path d="M73.0537 59.1769C72.5363 60.2118 72.6774 61.9523 73.383 63.0812C74.0886 64.2102 75.1235 64.3043 75.6409 63.2694C76.1584 62.2345 76.0173 60.494 75.3116 59.365C74.606 58.2361 73.5712 58.142 73.0537 59.1769Z" fill="#8B278B"/>
<path d="M68.3026 68.3497C68.8201 67.3148 69.855 67.4089 70.5606 68.5379C71.2662 69.6668 71.4073 71.4073 70.8899 72.4422C70.3724 73.4771 69.3375 73.383 68.6319 72.2541C67.8793 71.1721 67.7382 69.3846 68.3026 68.3497Z" fill="#8B278B"/>
<path d="M103.065 63.1282C103.442 64.3983 102.595 65.1509 101.137 64.8687C99.6786 64.5864 98.1733 63.3164 97.7499 62.0933C97.3736 60.8232 98.2203 60.0706 99.6786 60.3528C101.137 60.6351 102.642 61.9051 103.065 63.1282Z" fill="#8B278B"/>
<path d="M48.969 9.26701C49.1101 9.26701 49.2983 9.31405 49.4394 9.36109C49.6276 9.45517 49.7217 9.54925 49.8158 9.69037L54.755 17.2168L53.9083 17.1698L58.9416 9.69037C59.1297 9.40813 59.412 9.21997 59.7413 9.21997C60.0235 9.21997 60.2117 9.31405 60.4469 9.50221C60.635 9.69037 60.7291 9.92558 60.7291 10.2078V21.8268C60.7291 22.109 60.635 22.3442 60.4469 22.5324C60.2587 22.7206 60.0235 22.8146 59.7413 22.8146C59.412 22.8146 59.1768 22.7206 58.9886 22.5324C58.8005 22.3442 58.7064 22.109 58.7064 21.8268V12.0424L59.3179 12.1835L55.0372 18.6751C54.9432 18.7692 54.8491 18.9103 54.708 18.9573C54.5668 19.0514 54.4257 19.0984 54.2376 19.0514C54.0964 19.0514 53.9553 19.0514 53.8142 18.9573C53.6731 18.8632 53.5319 18.7692 53.4379 18.6751L49.2983 12.2776L49.7687 11.4779V21.8738C49.7687 22.1561 49.6746 22.3913 49.4865 22.5794C49.2983 22.7676 49.0631 22.8617 48.7809 22.8617C48.4986 22.8617 48.2634 22.7676 48.1223 22.5794C47.9341 22.3913 47.8401 22.1561 47.8401 21.8738V10.2549C47.8401 9.97262 47.9341 9.73741 48.1223 9.54925C48.4516 9.36109 48.6868 9.26701 48.969 9.26701Z" fill="#8B278B"/>
<path d="M71.3132 12.6069C71.5955 12.6069 71.8307 12.701 72.0188 12.8892C72.207 13.0773 72.3011 13.3125 72.3011 13.5948V21.968C72.3011 23.0969 72.0659 24.0377 71.6425 24.7434C71.2191 25.449 70.6076 25.9664 69.902 26.2957C69.1964 26.625 68.3497 26.8131 67.4089 26.8131C66.9385 26.8131 66.4681 26.7661 65.9977 26.672C65.5273 26.5779 65.1509 26.4838 64.8687 26.2957C64.5394 26.1546 64.3512 25.9664 64.2101 25.7782C64.069 25.5901 64.069 25.3549 64.1631 25.1197C64.2572 24.7904 64.3983 24.6022 64.6335 24.5082C64.8687 24.4141 65.1039 24.367 65.292 24.4611C65.5273 24.5552 65.8095 24.6493 66.1858 24.7904C66.5621 24.9315 66.9855 25.0256 67.4089 25.0256C68.0674 25.0256 68.5849 24.9315 69.0082 24.6963C69.4316 24.5082 69.7609 24.1789 69.9961 23.7085C70.2313 23.2851 70.3254 22.7206 70.3254 22.015V20.6508L70.6546 21.1212C70.4665 21.5446 70.1842 21.9209 69.855 22.2032C69.5257 22.4854 69.1023 22.7206 68.679 22.8617C68.2556 23.0029 67.6911 23.0969 67.1737 23.0969C66.4681 23.0969 65.8565 22.9558 65.3391 22.6265C64.8216 22.2973 64.4453 21.8739 64.1631 21.3094C63.8808 20.7449 63.7397 20.0864 63.7397 19.3807V13.5948C63.7397 13.3125 63.8338 13.0773 64.022 12.8892C64.2101 12.701 64.4453 12.6069 64.7276 12.6069C65.0098 12.6069 65.245 12.701 65.4332 12.8892C65.6213 13.0773 65.7154 13.3125 65.7154 13.5948V18.8163C65.7154 19.663 65.9036 20.2745 66.2799 20.6979C66.6562 21.0742 67.2207 21.3094 67.9733 21.3094C68.4438 21.3094 68.9142 21.2153 69.2434 20.9801C69.6198 20.792 69.902 20.4627 70.0902 20.1334C70.2783 19.7571 70.4194 19.3337 70.4194 18.8633V13.5948C70.4194 13.3125 70.5135 13.0773 70.7017 12.8892C70.7958 12.701 71.031 12.6069 71.3132 12.6069Z" fill="#8B278B"/>
<path d="M23.4732 40.6429C22.4853 40.6429 21.5915 40.4548 20.6978 40.1255C19.804 39.7962 19.0984 39.2788 18.4398 38.6202C17.7813 37.9616 17.3109 37.256 16.9345 36.4093C16.5582 35.5626 16.3701 34.6688 16.3701 33.681C16.3701 32.6931 16.5582 31.7994 16.9345 30.9526C17.3109 30.1059 17.7813 29.3533 18.4398 28.7417C19.0984 28.1302 19.851 27.6128 20.6978 27.2364C21.5445 26.8601 22.4853 26.719 23.4732 26.719C24.0847 26.719 24.7432 26.8131 25.3077 26.9542C25.9193 27.0953 26.4367 27.2835 26.9071 27.5657C27.0953 27.6598 27.1893 27.7539 27.2834 27.942C27.3775 28.0832 27.3775 28.2243 27.3775 28.3654C27.3775 28.6476 27.2834 28.8829 27.0953 29.071C26.9071 29.2592 26.7189 29.3533 26.4367 29.3533C26.3426 29.3533 26.2485 29.3533 26.1545 29.3062C26.0604 29.2592 25.9663 29.2592 25.8722 29.2121C25.4959 29.024 25.1196 28.8829 24.6962 28.7888C24.2728 28.6947 23.8495 28.6477 23.3791 28.6477C22.4383 28.6477 21.5915 28.8829 20.8389 29.3062C20.0862 29.7766 19.4747 30.3411 19.0514 31.1408C18.628 31.8934 18.3928 32.7402 18.3928 33.728C18.3928 34.6688 18.628 35.5155 19.0514 36.2682C19.4747 37.0208 20.0862 37.6324 20.8389 38.1028C21.5915 38.5732 22.4383 38.7613 23.3791 38.7613C23.8495 38.7613 24.3199 38.7143 24.8373 38.5732C25.3548 38.4791 25.7781 38.338 26.1074 38.1498L25.9663 38.6672V34.9981L26.2956 35.2803H23.7554C23.4732 35.2803 23.238 35.1863 23.0498 34.9981C22.8616 34.8099 22.7675 34.5747 22.7675 34.2925C22.7675 34.0103 22.8616 33.7751 23.0498 33.5869C23.238 33.3987 23.4732 33.3046 23.7554 33.3046H27.0953C27.3775 33.3046 27.6127 33.3987 27.8009 33.5869C27.989 33.7751 28.0831 34.0103 28.0831 34.2925V38.5732C28.0831 38.7613 28.0361 38.9495 27.942 39.0906C27.8479 39.2317 27.7068 39.3729 27.6127 39.4199C27.0482 39.7962 26.3897 40.0785 25.6841 40.3137C24.9784 40.5489 24.2258 40.6429 23.4732 40.6429Z" fill="#0061A1"/>
<path d="M31.423 40.4547C31.1407 40.4547 30.9055 40.3606 30.7174 40.1724C30.5292 39.9843 30.4351 39.7491 30.4351 39.4668V31.2348C30.4351 30.9525 30.5292 30.7173 30.7174 30.5292C30.9055 30.341 31.1407 30.2469 31.423 30.2469C31.7052 30.2469 31.9404 30.341 32.1286 30.5292C32.3167 30.7173 32.4108 30.9525 32.4108 31.2348V33.3986L32.2227 32.5519C32.3167 32.1756 32.5049 31.8463 32.6931 31.5641C32.9283 31.2348 33.1635 30.9996 33.4457 30.7644C33.7279 30.5292 34.0572 30.341 34.4336 30.1999C34.8099 30.0588 35.1862 30.0117 35.6096 30.0117C35.9388 30.0117 36.2211 30.1058 36.5033 30.294C36.7385 30.4821 36.8797 30.7173 36.8797 30.9525C36.8797 31.2818 36.7856 31.5641 36.5974 31.7052C36.4093 31.8933 36.2211 31.9874 35.9859 31.9874C35.7977 31.9874 35.6096 31.9404 35.4214 31.8463C35.2332 31.7522 35.0451 31.7052 34.7628 31.7052C34.4806 31.7052 34.1984 31.7993 33.9161 31.9404C33.6339 32.0815 33.3516 32.3167 33.1164 32.5519C32.8812 32.8341 32.6931 33.1634 32.5519 33.5397C32.4579 33.9161 32.4108 34.3394 32.4108 34.8098V39.4668C32.4108 39.7491 32.3167 39.9843 32.1286 40.1724C31.9404 40.3606 31.7052 40.4547 31.423 40.4547Z" fill="#0061A1"/>
<path d="M46.1937 30.1528C46.4759 30.1528 46.7111 30.2469 46.8993 30.4351C47.0874 30.6232 47.1815 30.8584 47.1815 31.1407V39.5139C47.1815 40.6428 46.9463 41.5836 46.5229 42.2893C46.0996 42.9949 45.4881 43.5123 44.7824 43.8416C44.0768 44.1709 43.2301 44.359 42.2893 44.359C41.8189 44.359 41.3485 44.312 40.8781 44.2179C40.4077 44.1238 40.0314 44.0297 39.7491 43.8416C39.4198 43.7005 39.2317 43.5123 39.0906 43.3241C38.9494 43.136 38.9494 42.9008 39.0435 42.6656C39.1376 42.3363 39.2787 42.1481 39.5139 42.054C39.7491 41.96 39.9843 41.9129 40.1725 42.007C40.4077 42.1011 40.6899 42.1952 41.0663 42.3363C41.4426 42.4774 41.8659 42.5715 42.2893 42.5715C42.9008 42.5715 43.4653 42.4774 43.8887 42.2422C44.312 42.0541 44.6413 41.7248 44.8765 41.2544C45.1117 40.831 45.2058 40.2665 45.2058 39.5609V38.1967L45.5351 38.6671C45.3469 39.0905 45.0647 39.4668 44.7354 39.7491C44.4061 40.0313 43.9828 40.2665 43.5594 40.4076C43.089 40.5488 42.5716 40.6428 42.0541 40.6428C41.3485 40.6428 40.737 40.5017 40.2195 40.1724C39.7021 39.8432 39.3258 39.4198 39.0435 38.8553C38.7613 38.2908 38.5731 37.6323 38.5731 36.9266V31.1407C38.5731 30.8584 38.6672 30.6232 38.8554 30.4351C39.0435 30.2469 39.2787 30.1528 39.561 30.1528C39.8432 30.1528 40.0784 30.2469 40.2666 30.4351C40.4547 30.6232 40.5488 30.8584 40.5488 31.1407V36.4092C40.5488 37.2559 40.737 37.8675 41.1133 38.2908C41.4896 38.6671 42.0541 38.9023 42.8068 38.9023C43.2772 38.9023 43.7476 38.8083 44.0768 38.5731C44.4532 38.3849 44.7354 38.0556 44.9236 37.7263C45.1117 37.35 45.2529 36.9266 45.2529 36.4562V31.1407C45.2529 30.8584 45.3469 30.6232 45.5351 30.4351C45.6762 30.2469 45.9114 30.1528 46.1937 30.1528Z" fill="#0061A1"/>
<path d="M61.764 30.1528C61.9992 30.1528 62.2344 30.2469 62.4226 30.4351C62.6108 30.6232 62.7048 30.8584 62.7048 31.1407C62.7048 31.1877 62.7048 31.2818 62.7048 31.3288C62.7048 31.3759 62.6578 31.47 62.6578 31.517L59.6943 39.8431C59.6002 40.0784 59.4591 40.2195 59.2709 40.3606C59.0827 40.4547 58.8946 40.5017 58.6594 40.5017C58.283 40.4547 58.0008 40.2665 57.8126 39.8902L55.6017 34.0572L56.0721 34.1042L54.0494 39.8902C53.8612 40.2665 53.579 40.5017 53.2027 40.5017C53.0145 40.5488 52.8264 40.5017 52.5912 40.3606C52.403 40.2665 52.2619 40.0784 52.1678 39.8431L49.2042 31.517C49.1572 31.4229 49.1102 31.2818 49.1102 31.1407C49.1102 30.8584 49.2042 30.6232 49.3924 30.4351C49.5806 30.2469 49.8158 30.1528 50.098 30.1528C50.2862 30.1528 50.4743 30.1999 50.6625 30.294C50.8036 30.388 50.9447 30.5762 50.9918 30.7644L53.4849 37.7734L53.0145 37.7263L55.0373 32.4108C55.2254 31.9874 55.5077 31.7992 55.931 31.7992C56.1662 31.7992 56.3544 31.8463 56.4955 31.9404C56.6366 32.0344 56.7307 32.1756 56.8248 32.4108L58.8946 37.7263L58.3771 37.7734L60.8703 30.7173C60.9643 30.341 61.2936 30.1528 61.764 30.1528Z" fill="#0061A1"/>
<path d="M73.0537 30.1059C73.336 30.1059 73.5712 30.2 73.7593 30.3881C73.9475 30.5763 74.0416 30.8115 74.0416 31.0937V39.4669C74.0416 39.7492 73.9475 39.9844 73.7593 40.1725C73.5712 40.3607 73.336 40.4548 73.0537 40.4548C72.7715 40.4548 72.5363 40.3607 72.3481 40.1725C72.16 39.9844 72.0659 39.7492 72.0659 39.4669V38.0557L72.4422 38.1027C72.4422 38.3379 72.3481 38.5731 72.1599 38.9024C71.9718 39.1847 71.7366 39.4669 71.4073 39.7492C71.078 40.0314 70.7017 40.2196 70.2783 40.4077C69.855 40.5959 69.3846 40.69 68.8671 40.69C67.9734 40.69 67.1737 40.4548 66.4681 39.9844C65.7625 39.514 65.198 38.9024 64.7746 38.1027C64.3512 37.3031 64.1631 36.4093 64.1631 35.3744C64.1631 34.3395 64.3512 33.3987 64.7746 32.599C65.198 31.7993 65.7625 31.1878 66.4681 30.7174C67.1737 30.247 67.9734 30.0588 68.8201 30.0588C69.3846 30.0588 69.902 30.1529 70.3724 30.3411C70.8428 30.5292 71.2662 30.7644 71.5955 31.0467C71.9247 31.3289 72.207 31.6112 72.3952 31.9405C72.5833 32.2697 72.6774 32.552 72.6774 32.8342L72.0659 32.8813V31.0937C72.0659 30.8115 72.16 30.5763 72.3481 30.3881C72.5363 30.2 72.7715 30.1059 73.0537 30.1059ZM69.1023 38.8554C69.7139 38.8554 70.2313 38.7143 70.7017 38.385C71.1721 38.0557 71.5014 37.6323 71.7836 37.1149C72.0659 36.5975 72.1599 35.9859 72.1599 35.3274C72.1599 34.6688 72.0188 34.0573 71.7836 33.5398C71.5484 33.0224 71.1721 32.599 70.7017 32.2697C70.2313 31.9405 69.7139 31.7993 69.1023 31.7993C68.4908 31.7993 67.9734 31.9405 67.503 32.2697C67.0326 32.599 66.6562 33.0224 66.421 33.5398C66.1388 34.0573 66.0447 34.6688 66.0447 35.3274C66.0447 35.9859 66.1858 36.5975 66.421 37.1149C66.6562 37.6323 67.0326 38.0557 67.503 38.385C67.9734 38.7143 68.4908 38.8554 69.1023 38.8554Z" fill="#0061A1"/>
<path d="M81.8503 30.0588C82.7911 30.0588 83.5437 30.294 84.0612 30.7644C84.5786 31.2348 84.9079 31.8934 85.096 32.6931L84.7668 32.599L84.9079 32.2697C85.096 31.9405 85.3313 31.6112 85.6605 31.2348C85.9898 30.9056 86.4132 30.6233 86.8836 30.3881C87.354 30.1529 87.8714 30.0588 88.4359 30.0588C89.3297 30.0588 90.0353 30.247 90.5057 30.6233C90.9761 30.9996 91.3524 31.5171 91.5406 32.1757C91.7287 32.8342 91.8228 33.5398 91.8228 34.3395V39.4669C91.8228 39.7492 91.7287 39.9844 91.5406 40.1725C91.3524 40.3607 91.1172 40.4548 90.835 40.4548C90.5527 40.4548 90.3175 40.3607 90.1294 40.1725C89.9412 39.9844 89.8471 39.7492 89.8471 39.4669V34.3395C89.8471 33.8691 89.8001 33.4928 89.659 33.1165C89.5178 32.7401 89.3297 32.4579 89.0004 32.2227C88.7182 31.9875 88.2948 31.8934 87.7303 31.8934C87.2129 31.8934 86.7895 31.9875 86.3661 32.2227C85.9428 32.4579 85.6605 32.7401 85.4253 33.1165C85.1901 33.4928 85.096 33.9161 85.096 34.3395V39.4669C85.096 39.7492 85.002 39.9844 84.8138 40.1725C84.6256 40.3607 84.3904 40.4548 84.1082 40.4548C83.826 40.4548 83.5908 40.3607 83.4026 40.1725C83.2144 39.9844 83.1204 39.7492 83.1204 39.4669V34.3395C83.1204 33.8691 83.0733 33.4928 82.9322 33.1165C82.7911 32.7401 82.6029 32.4579 82.3207 32.2227C82.0384 31.9875 81.6151 31.8934 81.0976 31.8934C80.5802 31.8934 80.1568 31.9875 79.7334 32.2227C79.3101 32.4579 79.0278 32.7401 78.8397 33.1165C78.6045 33.4928 78.5104 33.9161 78.5104 34.3395V39.4669C78.5104 39.7492 78.4163 39.9844 78.2282 40.1725C78.04 40.3607 77.8048 40.4548 77.5225 40.4548C77.2403 40.4548 77.0051 40.3607 76.8169 40.1725C76.6288 39.9844 76.5347 39.7492 76.5347 39.4669V31.2348C76.5347 30.9526 76.6288 30.7174 76.8169 30.5292C77.0051 30.3411 77.2403 30.247 77.5225 30.247C77.8048 30.247 78.04 30.3411 78.2282 30.5292C78.4163 30.7174 78.5104 30.9526 78.5104 31.2348V32.3638L78.1341 32.599C78.2282 32.3168 78.3693 32.0345 78.6045 31.7053C78.7926 31.423 79.0749 31.1408 79.4042 30.9056C79.7334 30.6704 80.0627 30.4352 80.4861 30.294C80.9095 30.1529 81.4269 30.0588 81.8503 30.0588Z" fill="#0061A1"/>
<path d="M102.078 30.1528C102.36 30.1528 102.595 30.2469 102.783 30.4351C102.971 30.6232 103.065 30.8584 103.065 31.1407V39.5139C103.065 40.6428 102.83 41.5836 102.407 42.2893C101.984 42.9949 101.372 43.5123 100.666 43.8416C99.9608 44.1709 99.1141 44.359 98.1733 44.359C97.7029 44.359 97.2325 44.312 96.7621 44.2179C96.2917 44.1238 95.9153 44.0297 95.6331 43.8416C95.3038 43.7005 95.1156 43.5123 94.9745 43.3241C94.8334 43.136 94.8334 42.9008 94.9275 42.6656C95.0216 42.3363 95.1627 42.1481 95.3979 42.054C95.6331 41.96 95.8683 41.9129 96.0565 42.007C96.2917 42.1011 96.5739 42.1952 96.9502 42.3363C97.3265 42.4774 97.7499 42.5715 98.1733 42.5715C98.8318 42.5715 99.3493 42.4774 99.7726 42.2422C100.196 42.0541 100.525 41.7248 100.76 41.2544C100.996 40.831 101.09 40.2665 101.09 39.5609V38.1967L101.419 38.6671C101.231 39.0905 100.949 39.4668 100.619 39.7491C100.29 40.0313 99.8667 40.2665 99.4434 40.4076C99.02 40.5488 98.4555 40.6428 97.9381 40.6428C97.2325 40.6428 96.6209 40.5017 96.1035 40.1724C95.5861 39.8432 95.2097 39.4198 94.9275 38.8553C94.6452 38.2908 94.5041 37.6323 94.5041 36.9266V31.1407C94.5041 30.8584 94.5982 30.6232 94.7864 30.4351C94.9745 30.2469 95.2097 30.1528 95.492 30.1528C95.7742 30.1528 96.0094 30.2469 96.1976 30.4351C96.3857 30.6232 96.4798 30.8584 96.4798 31.1407V36.4092C96.4798 37.2559 96.668 37.8675 97.0443 38.2908C97.4206 38.6671 97.9851 38.9023 98.7378 38.9023C99.2082 38.9023 99.6786 38.8083 100.008 38.5731C100.384 38.3849 100.666 38.0556 100.855 37.7263C101.043 37.35 101.184 36.9266 101.184 36.4562V31.1407C101.184 30.8584 101.278 30.6232 101.466 30.4351C101.607 30.2469 101.842 30.1528 102.078 30.1528Z" fill="#0061A1"/>
<path d="M60.0235 116.472C91.1992 116.472 116.472 91.199 116.472 60.0234C116.472 28.8478 91.1992 3.57495 60.0235 3.57495C28.8479 3.57495 3.57507 28.8478 3.57507 60.0234C3.57507 91.199 28.8479 116.472 60.0235 116.472Z" stroke="#0061A1" stroke-width="3" stroke-miterlimit="10"/>
</svg>
