<svg width="60" height="60" viewBox="0 0 60 60" fill="none" xmlns="http://www.w3.org/2000/svg">
<path d="M48.75 17.5C46.6904 14.4175 43.901 11.8916 40.6299 10.147C37.3588 8.40243 33.7072 7.49314 30 7.50001C26.2991 7.49775 22.6549 8.40932 19.391 10.1538C16.1271 11.8983 13.3444 14.4217 11.29 17.5" stroke="#0061A1" stroke-width="2" stroke-linecap="round" stroke-linejoin="round"/>
<path d="M28.75 7.5C26.8016 10.6215 25.2671 13.983 24.185 17.5" stroke="#0061A1" stroke-width="2" stroke-linecap="round" stroke-linejoin="round"/>
<path d="M31.25 7.5C33.2002 10.6213 34.7364 13.9827 35.82 17.5" stroke="#0061A1" stroke-width="2" stroke-linecap="round" stroke-linejoin="round"/>
<path d="M48.75 42.5C46.6904 45.5825 43.901 48.1084 40.6299 49.853C37.3588 51.5976 33.7072 52.5069 30 52.5C26.2991 52.5023 22.6549 51.5907 19.391 49.8462C16.1271 48.1017 13.3444 45.5783 11.29 42.5" stroke="#0061A1" stroke-width="2" stroke-linecap="round" stroke-linejoin="round"/>
<path d="M28.75 52.5C26.8016 49.3785 25.2671 46.017 24.185 42.5" stroke="#0061A1" stroke-width="2" stroke-linecap="round" stroke-linejoin="round"/>
<path d="M31.25 52.5C33.2002 49.3787 34.7364 46.0173 35.82 42.5" stroke="#0061A1" stroke-width="2" stroke-linecap="round" stroke-linejoin="round"/>
<path d="M5 25L7.5 35L11.25 25L15 35L17.5 25" stroke="#0061A1" stroke-width="2" stroke-linecap="round" stroke-linejoin="round"/>
<path d="M42.5 25L45 35L48.75 25L52.5 35L55 25" stroke="#0061A1" stroke-width="2" stroke-linecap="round" stroke-linejoin="round"/>
<path d="M23.75 25L26.25 35L30 25L33.75 35L36.25 25" stroke="#0061A1" stroke-width="2" stroke-linecap="round" stroke-linejoin="round"/>
</svg>
