<svg width="20" height="20" viewBox="-5 -5 45 45" fill="none" xmlns="http://www.w3.org/2000/svg">
<path d="M21.3221 34.2525C21.4318 34.7877 21.249 35.323 20.8103 35.6441C20.4082 36.0009 19.8233 36.108 19.3116 35.9296L6.99259 31.6833C6.48082 31.5049 6.11527 31.0767 6.0056 30.5415L3.62954 18.017C3.51987 17.4818 3.70265 16.9465 4.14131 16.6254C4.54341 16.2686 5.12829 16.1615 5.64006 16.3399L17.959 20.5861C18.4708 20.7646 18.8729 21.1927 18.946 21.728L21.3221 34.2525Z" fill="#FFF"/>
<path d="M30.4608 8.88231C30.5705 9.41755 30.3877 9.95278 29.949 10.2739L20.0427 18.5522C19.6406 18.909 19.0557 19.0161 18.5439 18.8377L6.22492 14.5915C5.71315 14.4131 5.3476 13.9849 5.23794 13.4497C5.12827 12.9144 5.31105 12.3792 5.7497 12.058L15.6561 3.77974C16.0582 3.42291 16.6431 3.31586 17.1548 3.49428L29.4738 7.74048C30.0221 7.95457 30.3877 8.34708 30.4608 8.88231Z" fill="#FFF"/>
<path d="M36.0537 25.0821C36.1633 25.6173 35.944 26.1525 35.5419 26.4737L25.6355 34.752C25.2334 35.1088 24.6486 35.2158 24.1368 35.0374C23.625 34.859 23.2595 34.4308 23.1498 33.8956L20.7737 21.3711C20.6641 20.8359 20.8834 20.3006 21.2855 19.9438L31.1919 11.6655C31.594 11.3087 32.1789 11.2016 32.6906 11.38C33.2024 11.5584 33.5679 11.9866 33.6776 12.5219L36.0537 25.0821Z" fill="#FFF"/>
<path d="M14.5595 27.2945C14.7423 28.2579 14.0112 28.7932 12.878 28.4007C11.7813 28.0438 10.7212 26.9734 10.5384 25.9742C10.3557 25.0108 11.0868 24.5113 12.22 24.8681C13.3166 25.2249 14.3767 26.2954 14.5595 27.2945Z" fill="#0061A1"/>
<path d="M19.6771 9.91716C20.5179 10.4881 20.3717 11.3445 19.3116 11.844C18.2515 12.3436 16.7527 12.3079 15.912 11.737C15.0712 11.166 15.2174 10.3097 16.2775 9.81011C17.301 9.31056 18.8363 9.34624 19.6771 9.91716Z" fill="#0061A1"/>
<path d="M18.946 31.3979C18.7633 30.4345 17.7032 29.3283 16.6065 28.9715C15.5099 28.6147 14.7422 29.1142 14.925 30.0776C15.1078 31.0411 16.1679 32.1472 17.2645 32.504C18.3977 32.8965 19.1288 32.397 18.946 31.3979Z" fill="#0061A1"/>
<path d="M5.96905 20.8359C6.15183 21.7993 7.21192 22.9055 8.30856 23.2623C9.40521 23.6191 10.1729 23.1196 9.99009 22.1562C9.80731 21.1927 8.74722 20.0866 7.65058 19.7298C6.51737 19.3729 5.78628 19.8725 5.96905 20.8359Z" fill="#0061A1"/>
<path d="M24.7217 30.3632C24.5389 29.3998 25.1238 28.0081 26.0011 27.2945C26.915 26.5809 27.7923 26.7593 27.9751 27.7584C28.1579 28.7218 27.573 30.1134 26.6957 30.8271C25.7818 31.5407 24.9045 31.3266 24.7217 30.3632Z" fill="#0061A1"/>
<path d="M32.91 15.9475C33.0928 16.9109 32.5079 18.3025 31.6306 19.0162C30.7167 19.7298 29.8394 19.5157 29.6566 18.5523C29.4738 17.5889 30.0587 16.1973 30.936 15.4836C31.8499 14.77 32.7272 14.9484 32.91 15.9475Z" fill="#0061A1"/>
<path d="M1.03415 15.1624L4.14132 31.3621C4.32409 32.2542 4.98208 33.0035 5.8594 33.3247L21.7973 38.8198C22.6746 39.1409 23.6616 38.9625 24.3927 38.3559L37.2235 27.6512C37.9546 27.0446 38.2836 26.1168 38.1008 25.2248L34.9936 9.025C34.8109 8.13294 34.1529 7.38361 33.2755 7.06247L17.3376 1.56739C16.4603 1.24625 15.4733 1.42466 14.7422 2.03126L1.91147 12.736C1.21693 13.3426 0.887934 14.2703 1.03415 15.1624Z" stroke="#FFF" stroke-width="2" stroke-miterlimit="10"/>
</svg>
